id,name,model_id/id,group_id/id,perm_read,perm_write,perm_create,perm_unlink
access_labor_calculation,access_labor_calculation,model_labor_calculation,base.group_user,1,1,1,1
access_inherited_sale_order_line,access_inherited_sale_order_line,model_inherited_sale_order_line,base.group_user,1,1,1,1
